Take Home Exercise 2 – Walter Teng’s Coursework for SMU ISSS626: Geospatial Analytics and Applications
…
7.2 Import Aspatial Data

We import and examine the aspatial tourism dataset:

tourism_df <- read_csv("data/raw_data/thailand_domestic_tourism_2019_2023_ver2.csv")

tourism_df

# A tibble: 30,800 × 7
   date       province_thai province_eng   region_thai region_eng variable value
   <date>     <chr>         <chr>          <chr>       <chr>      <chr>    <dbl>
 1 2019-01-01 กรุงเทพมหานคร  Bangkok        ภาคกลาง     central    ratio_t…  93.4
 2 2019-01-01 ลพบุรี          Lopburi        ภาคกลาง     central    ratio_t…  61.3
 3 2019-01-01 พระนครศรีอยุธยา Phra Nakhon S… ภาคกลาง     central    ratio_t…  73.4
 4 2019-01-01 สระบุรี         Saraburi       ภาคกลาง     central    ratio_t…  67.3
 5 2019-01-01 ชัยนาท         Chainat        ภาคกลาง     central    ratio_t…  79.3
 6 2019-01-01 นครปฐม        Nakhon Pathom  ภาคกลาง     central    ratio_t…  71.7
 7 2019-01-01 สิงห์บุรี         Sing Buri      ภาคกลาง     central    ratio_t…  64.6
 8 2019-01-01 อ่างทอง        Ang Thong      ภาคกลาง     central    ratio_t…  71.2
 9 2019-01-01 นนทบุรี         Nonthaburi     ภาคกลาง     central    ratio_t…  75.1
10 2019-01-01 ปทุมธานี        Pathum Thani   ภาคกลาง     central    ratio_t…  60.8
# ℹ 30,790 more rows
…
