9A: Processing and Visualising Flow Data – Walter Teng’s Coursework for SMU ISSS626: Geospatial Analytics and Applications
…
Next, append the subzone codes to the odbus6_9 dataset:

od_data <- left_join(odbus6_9, busstop_mpsz, by = c("ORIGIN_PT_CODE" = "BUS_STOP_N")) %>%
  rename(ORIGIN_BS = ORIGIN_PT_CODE, ORIGIN_SZ = SUBZONE_C, DESTIN_BS = DESTINATION_PT_CODE)

Check for duplicate records:

duplicate <- od_data %>%
  group_by_all() %>%
  filter(n() > 1) %>%
  ungroup()

duplicate

# A tibble: 1,464 × 4
   ORIGIN_BS DESTIN_BS TRIPS ORIGIN_SZ
   <chr>     <fct>     <dbl> <chr>    
 1 09047     02029         2 ORSZ02   
 2 09047     02029         2 ORSZ02   
 3 09047     02049        49 ORSZ02   
 4 09047     02049        49 ORSZ02   
 5 09047     02089        46 ORSZ02   
 6 09047     02089        46 ORSZ02   
 7 09047     02151        95 ORSZ02   
 8 09047     02151        95 ORSZ02   
 9 09047     02161        35 ORSZ02   
10 09047     02161        35 ORSZ02   
# ℹ 1,454 more rows
…
