Take Home Exercise 1 – Walter Teng’s Coursework for SMU ISSS626: Geospatial Analytics and Applications
…
set.seed(1234)

6 Import Data and Preparation

In this section, we will perform sanity checks on the raw data from from the official data sources and identify useful data for our case study area.

6.1 Thai Road Accident Data

Firstly, we will import the Thai Road Accident dataset from 2019-2022 using read_csv() of readr package.

rdacc_sf <- read_csv("data/raw_data/thai_road_accident_2019_2022.csv")
rdacc_sf

# A tibble: 81,735 × 18
   acc_code incident_datetime   report_datetime     province_th province_en     
      <dbl> <dttm>              <dttm>              <chr>       <chr>           
 1   571905 2019-01-01 00:00:00 2019-01-02 06:11:00 ลพบุรี        Loburi          
 2  3790870 2019-01-01 00:03:00 2020-02-20 13:48:00 อุบลราชธานี   Ubon Ratchathani
 3   599075 2019-01-01 00:05:00 2019-01-01 10:35:00 ประจวบคีรีขันธ์ Prachuap Khiri …
 4   571924 2019-01-01 00:20:00 2019-01-02 05:12:00 เชียงใหม่     Chiang Mai      
 5   599523 2019-01-01 00:25:00 2019-01-04 09:42:00 นครสวรรค์    Nakhon Sawan    
 6   571982 2019-01-01 00:30:00 2019-01-07 12:46:00 แม่ฮ่องสอน    Mae Hong Son    
 7   612782 2019-01-01 00:30:00 2019-10-25 14:25:00 ชุมพร        Chumphon        
 8   599235 2019-01-01 00:35:00 2019-01-02 16:23:00 สิงห์บุรี       Sing Buri       
 9   600643 2019-01-01 00:40:00 2019-01-11 10:01:00 สงขลา       Songkhla        
10   599105 2019-01-01 00:45:00 2019-01-01 10:11:00 ตราด        Trat            
# ℹ 81,725 more rows
# ℹ 13 more variables: agency <chr>, route <chr>, vehicle_type <chr>,
#   presumed_cause <chr>, accident_type <chr>,
#   number_of_vehicles_involved <dbl>, number_of_fatalities <dbl>,
#   number_of_injuries <dbl>, weather_condition <chr>, latitude <dbl>,
#   longitude <dbl>, road_description <chr>, slope_description <chr>
…
